<?xml version="1.0" standalone="no"?>
<!DOCTYPE svg PUBLIC "-//W3C//DTD SVG 20010904//EN"
 "http://www.w3.org/TR/2001/REC-SVG-20010904/DTD/svg10.dtd">
<svg version="1.0" xmlns="http://www.w3.org/2000/svg"
 width="512.000000pt" height="512.000000pt" viewBox="0 0 512.000000 512.000000"
 preserveAspectRatio="xMidYMid meet">
<metadata>
Created by potrace 1.11, written by Peter Selinger 2001-2013
</metadata>
<g transform="translate(0.000000,512.000000) scale(0.100000,-0.100000)"
fill="#000000" stroke="none">
<path d="M2385 5114 c-319 -32 -530 -81 -788 -183 -432 -171 -808 -463 -1101
-854 -241 -324 -407 -729 -472 -1152 -26 -170 -26 -560 0 -730 123 -802 586
-1474 1291 -1873 254 -145 567 -250 885 -299 164 -25 558 -25 725 1 395 60
780 211 1085 424 196 137 451 381 588 565 523 695 661 1593 371 2411 -80 226
-217 478 -371 684 -93 124 -304 341 -433 445 -355 286 -775 470 -1230 538
-124 19 -455 33 -550 23z m720 -1181 c341 -99 578 -336 667 -668 25 -93 34
-260 19 -355 -56 -361 -305 -648 -658 -757 l-88 -27 -422 -4 -423 -3 0 -508
c0 -381 -3 -510 -12 -519 -19 -19 -521 -17 -537 2 -8 10 -11 361 -9 1342 3
1274 4 1330 22 1364 36 69 106 129 176 151 14 4 288 7 610 5 554 -2 589 -3
655 -23z"/>
<path d="M2200 3040 l0 -361 383 3 382 3 66 32 c79 39 140 102 177 181 22 48
27 71 27 142 0 72 -5 94 -28 145 -36 78 -104 146 -181 182 l-61 28 -382 3
-383 3 0 -361z"/>
</g>
</svg>
